ISO-10303-21;
HEADER;
/* Generated by software containing ST-Developer
 * from STEP Tools, Inc. (www.steptools.com) 
 */

FILE_DESCRIPTION(
/* description */ (''),
/* implementation_level */ '2;1');

FILE_NAME(
/* name */ 'C:/Users/Shaber/Desktop/SD_CARD_MODULE v1.step',
/* time_stamp */ '2020-08-12T15:07:33+08:00',
/* author */ (''),
/* organization */ (''),
/* preprocessor_version */ 'ST-DEVELOPER v18.1',
/* originating_system */ 'Autodesk Translation Framework v9.3.0.1241',
/* authorisation */ '');

FILE_SCHEMA (('AUTOMOTIVE_DESIGN { 1 0 10303 214 3 1 1 }'));
ENDSEC;

DATA;
#10=MECHANICAL_DESIGN_GEOMETRIC_PRESENTATION_REPRESENTATION('',(#13),#363);
#11=SHAPE_REPRESENTATION_RELATIONSHIP('SRR','None',#370,#12);
#12=ADVANCED_BREP_SHAPE_REPRESENTATION('',(#14),#362);
#13=STYLED_ITEM('',(#379),#14);
#14=MANIFOLD_SOLID_BREP('Body1',#221);
#15=FACE_OUTER_BOUND('',#27,.T.);
#16=FACE_OUTER_BOUND('',#28,.T.);
#17=FACE_OUTER_BOUND('',#29,.T.);
#18=FACE_OUTER_BOUND('',#30,.T.);
#19=FACE_OUTER_BOUND('',#31,.T.);
#20=FACE_OUTER_BOUND('',#32,.T.);
#21=FACE_OUTER_BOUND('',#33,.T.);
#22=FACE_OUTER_BOUND('',#34,.T.);
#23=FACE_OUTER_BOUND('',#35,.T.);
#24=FACE_OUTER_BOUND('',#36,.T.);
#25=FACE_OUTER_BOUND('',#37,.T.);
#26=FACE_OUTER_BOUND('',#38,.T.);
#27=EDGE_LOOP('',(#141,#142,#143,#144,#145));
#28=EDGE_LOOP('',(#146,#147,#148,#149));
#29=EDGE_LOOP('',(#150,#151,#152,#153,#154));
#30=EDGE_LOOP('',(#155,#156,#157,#158));
#31=EDGE_LOOP('',(#159,#160,#161,#162));
#32=EDGE_LOOP('',(#163,#164,#165,#166));
#33=EDGE_LOOP('',(#167,#168,#169,#170,#171,#172));
#34=EDGE_LOOP('',(#173,#174,#175,#176));
#35=EDGE_LOOP('',(#177,#178,#179,#180));
#36=EDGE_LOOP('',(#181,#182,#183,#184));
#37=EDGE_LOOP('',(#185,#186,#187,#188,#189,#190,#191,#192));
#38=EDGE_LOOP('',(#193,#194,#195,#196));
#39=LINE('',#305,#67);
#40=LINE('',#307,#68);
#41=LINE('',#309,#69);
#42=LINE('',#311,#70);
#43=LINE('',#312,#71);
#44=LINE('',#315,#72);
#45=LINE('',#317,#73);
#46=LINE('',#318,#74);
#47=LINE('',#321,#75);
#48=LINE('',#323,#76);
#49=LINE('',#325,#77);
#50=LINE('',#326,#78);
#51=LINE('',#328,#79);
#52=LINE('',#329,#80);
#53=LINE('',#332,#81);
#54=LINE('',#335,#82);
#55=LINE('',#337,#83);
#56=LINE('',#339,#84);
#57=LINE('',#341,#85);
#58=LINE('',#342,#86);
#59=LINE('',#345,#87);
#60=LINE('',#347,#88);
#61=LINE('',#348,#89);
#62=LINE('',#351,#90);
#63=LINE('',#353,#91);
#64=LINE('',#354,#92);
#65=LINE('',#356,#93);
#66=LINE('',#357,#94);
#67=VECTOR('',#251,10.);
#68=VECTOR('',#252,10.);
#69=VECTOR('',#253,10.);
#70=VECTOR('',#254,10.);
#71=VECTOR('',#255,10.);
#72=VECTOR('',#258,10.);
#73=VECTOR('',#259,10.);
#74=VECTOR('',#260,10.);
#75=VECTOR('',#263,10.);
#76=VECTOR('',#264,10.);
#77=VECTOR('',#265,10.);
#78=VECTOR('',#266,10.);
#79=VECTOR('',#269,10.);
#80=VECTOR('',#270,10.);
#81=VECTOR('',#275,10.);
#82=VECTOR('',#278,10.);
#83=VECTOR('',#279,10.);
#84=VECTOR('',#280,10.);
#85=VECTOR('',#281,10.);
#86=VECTOR('',#282,10.);
#87=VECTOR('',#285,10.);
#88=VECTOR('',#286,10.);
#89=VECTOR('',#287,10.);
#90=VECTOR('',#290,10.);
#91=VECTOR('',#291,10.);
#92=VECTOR('',#292,10.);
#93=VECTOR('',#295,10.);
#94=VECTOR('',#296,10.);
#95=VERTEX_POINT('',#303);
#96=VERTEX_POINT('',#304);
#97=VERTEX_POINT('',#306);
#98=VERTEX_POINT('',#308);
#99=VERTEX_POINT('',#310);
#100=VERTEX_POINT('',#314);
#101=VERTEX_POINT('',#316);
#102=VERTEX_POINT('',#320);
#103=VERTEX_POINT('',#322);
#104=VERTEX_POINT('',#324);
#105=VERTEX_POINT('',#334);
#106=VERTEX_POINT('',#336);
#107=VERTEX_POINT('',#338);
#108=VERTEX_POINT('',#340);
#109=VERTEX_POINT('',#344);
#110=VERTEX_POINT('',#346);
#111=VERTEX_POINT('',#350);
#112=VERTEX_POINT('',#352);
#113=EDGE_CURVE('',#95,#96,#39,.T.);
#114=EDGE_CURVE('',#95,#97,#40,.T.);
#115=EDGE_CURVE('',#98,#97,#41,.T.);
#116=EDGE_CURVE('',#99,#98,#42,.T.);
#117=EDGE_CURVE('',#96,#99,#43,.T.);
#118=EDGE_CURVE('',#99,#100,#44,.T.);
#119=EDGE_CURVE('',#101,#98,#45,.T.);
#120=EDGE_CURVE('',#100,#101,#46,.T.);
#121=EDGE_CURVE('',#100,#102,#47,.T.);
#122=EDGE_CURVE('',#103,#101,#48,.T.);
#123=EDGE_CURVE('',#104,#103,#49,.T.);
#124=EDGE_CURVE('',#102,#104,#50,.T.);
#125=EDGE_CURVE('',#104,#95,#51,.T.);
#126=EDGE_CURVE('',#97,#103,#52,.T.);
#127=EDGE_CURVE('',#96,#102,#53,.T.);
#128=EDGE_CURVE('',#105,#96,#54,.T.);
#129=EDGE_CURVE('',#105,#106,#55,.T.);
#130=EDGE_CURVE('',#107,#106,#56,.T.);
#131=EDGE_CURVE('',#108,#107,#57,.T.);
#132=EDGE_CURVE('',#102,#108,#58,.T.);
#133=EDGE_CURVE('',#108,#109,#59,.T.);
#134=EDGE_CURVE('',#110,#107,#60,.T.);
#135=EDGE_CURVE('',#109,#110,#61,.T.);
#136=EDGE_CURVE('',#109,#111,#62,.T.);
#137=EDGE_CURVE('',#112,#110,#63,.T.);
#138=EDGE_CURVE('',#111,#112,#64,.T.);
#139=EDGE_CURVE('',#111,#105,#65,.T.);
#140=EDGE_CURVE('',#106,#112,#66,.T.);
#141=ORIENTED_EDGE('',*,*,#113,.F.);
#142=ORIENTED_EDGE('',*,*,#114,.T.);
#143=ORIENTED_EDGE('',*,*,#115,.F.);
#144=ORIENTED_EDGE('',*,*,#116,.F.);
#145=ORIENTED_EDGE('',*,*,#117,.F.);
#146=ORIENTED_EDGE('',*,*,#118,.F.);
#147=ORIENTED_EDGE('',*,*,#116,.T.);
#148=ORIENTED_EDGE('',*,*,#119,.F.);
#149=ORIENTED_EDGE('',*,*,#120,.F.);
#150=ORIENTED_EDGE('',*,*,#121,.F.);
#151=ORIENTED_EDGE('',*,*,#120,.T.);
#152=ORIENTED_EDGE('',*,*,#122,.F.);
#153=ORIENTED_EDGE('',*,*,#123,.F.);
#154=ORIENTED_EDGE('',*,*,#124,.F.);
#155=ORIENTED_EDGE('',*,*,#125,.F.);
#156=ORIENTED_EDGE('',*,*,#123,.T.);
#157=ORIENTED_EDGE('',*,*,#126,.F.);
#158=ORIENTED_EDGE('',*,*,#114,.F.);
#159=ORIENTED_EDGE('',*,*,#126,.T.);
#160=ORIENTED_EDGE('',*,*,#122,.T.);
#161=ORIENTED_EDGE('',*,*,#119,.T.);
#162=ORIENTED_EDGE('',*,*,#115,.T.);
#163=ORIENTED_EDGE('',*,*,#127,.T.);
#164=ORIENTED_EDGE('',*,*,#124,.T.);
#165=ORIENTED_EDGE('',*,*,#125,.T.);
#166=ORIENTED_EDGE('',*,*,#113,.T.);
#167=ORIENTED_EDGE('',*,*,#128,.F.);
#168=ORIENTED_EDGE('',*,*,#129,.T.);
#169=ORIENTED_EDGE('',*,*,#130,.F.);
#170=ORIENTED_EDGE('',*,*,#131,.F.);
#171=ORIENTED_EDGE('',*,*,#132,.F.);
#172=ORIENTED_EDGE('',*,*,#127,.F.);
#173=ORIENTED_EDGE('',*,*,#133,.F.);
#174=ORIENTED_EDGE('',*,*,#131,.T.);
#175=ORIENTED_EDGE('',*,*,#134,.F.);
#176=ORIENTED_EDGE('',*,*,#135,.F.);
#177=ORIENTED_EDGE('',*,*,#136,.F.);
#178=ORIENTED_EDGE('',*,*,#135,.T.);
#179=ORIENTED_EDGE('',*,*,#137,.F.);
#180=ORIENTED_EDGE('',*,*,#138,.F.);
#181=ORIENTED_EDGE('',*,*,#139,.F.);
#182=ORIENTED_EDGE('',*,*,#138,.T.);
#183=ORIENTED_EDGE('',*,*,#140,.F.);
#184=ORIENTED_EDGE('',*,*,#129,.F.);
#185=ORIENTED_EDGE('',*,*,#121,.T.);
#186=ORIENTED_EDGE('',*,*,#132,.T.);
#187=ORIENTED_EDGE('',*,*,#133,.T.);
#188=ORIENTED_EDGE('',*,*,#136,.T.);
#189=ORIENTED_EDGE('',*,*,#139,.T.);
#190=ORIENTED_EDGE('',*,*,#128,.T.);
#191=ORIENTED_EDGE('',*,*,#117,.T.);
#192=ORIENTED_EDGE('',*,*,#118,.T.);
#193=ORIENTED_EDGE('',*,*,#140,.T.);
#194=ORIENTED_EDGE('',*,*,#137,.T.);
#195=ORIENTED_EDGE('',*,*,#134,.T.);
#196=ORIENTED_EDGE('',*,*,#130,.T.);
#197=PLANE('',#235);
#198=PLANE('',#236);
#199=PLANE('',#237);
#200=PLANE('',#238);
#201=PLANE('',#239);
#202=PLANE('',#240);
#203=PLANE('',#241);
#204=PLANE('',#242);
#205=PLANE('',#243);
#206=PLANE('',#244);
#207=PLANE('',#245);
#208=PLANE('',#246);
#209=ADVANCED_FACE('',(#15),#197,.T.);
#210=ADVANCED_FACE('',(#16),#198,.T.);
#211=ADVANCED_FACE('',(#17),#199,.T.);
#212=ADVANCED_FACE('',(#18),#200,.T.);
#213=ADVANCED_FACE('',(#19),#201,.T.);
#214=ADVANCED_FACE('',(#20),#202,.F.);
#215=ADVANCED_FACE('',(#21),#203,.T.);
#216=ADVANCED_FACE('',(#22),#204,.T.);
#217=ADVANCED_FACE('',(#23),#205,.T.);
#218=ADVANCED_FACE('',(#24),#206,.T.);
#219=ADVANCED_FACE('',(#25),#207,.T.);
#220=ADVANCED_FACE('',(#26),#208,.T.);
#221=CLOSED_SHELL('',(#209,#210,#211,#212,#213,#214,#215,#216,#217,#218,
#219,#220));
#222=DERIVED_UNIT_ELEMENT(#224,1.);
#223=DERIVED_UNIT_ELEMENT(#365,3.);
#224=(
MASS_UNIT()
NAMED_UNIT(*)
SI_UNIT(.KILO.,.GRAM.)
);
#225=DERIVED_UNIT((#222,#223));
#226=MEASURE_REPRESENTATION_ITEM('density measure',
POSITIVE_RATIO_MEASURE(7850.),#225);
#227=PROPERTY_DEFINITION_REPRESENTATION(#232,#229);
#228=PROPERTY_DEFINITION_REPRESENTATION(#233,#230);
#229=REPRESENTATION('material name',(#231),#362);
#230=REPRESENTATION('density',(#226),#362);
#231=DESCRIPTIVE_REPRESENTATION_ITEM('Steel','Steel');
#232=PROPERTY_DEFINITION('material property','material name',#372);
#233=PROPERTY_DEFINITION('material property','density of part',#372);
#234=AXIS2_PLACEMENT_3D('placement',#301,#247,#248);
#235=AXIS2_PLACEMENT_3D('',#302,#249,#250);
#236=AXIS2_PLACEMENT_3D('',#313,#256,#257);
#237=AXIS2_PLACEMENT_3D('',#319,#261,#262);
#238=AXIS2_PLACEMENT_3D('',#327,#267,#268);
#239=AXIS2_PLACEMENT_3D('',#330,#271,#272);
#240=AXIS2_PLACEMENT_3D('',#331,#273,#274);
#241=AXIS2_PLACEMENT_3D('',#333,#276,#277);
#242=AXIS2_PLACEMENT_3D('',#343,#283,#284);
#243=AXIS2_PLACEMENT_3D('',#349,#288,#289);
#244=AXIS2_PLACEMENT_3D('',#355,#293,#294);
#245=AXIS2_PLACEMENT_3D('',#358,#297,#298);
#246=AXIS2_PLACEMENT_3D('',#359,#299,#300);
#247=DIRECTION('axis',(0.,0.,1.));
#248=DIRECTION('refdir',(1.,0.,0.));
#249=DIRECTION('center_axis',(-1.,0.,0.));
#250=DIRECTION('ref_axis',(0.,-1.,0.));
#251=DIRECTION('',(0.,1.,0.));
#252=DIRECTION('',(0.,0.,1.));
#253=DIRECTION('',(0.,-1.,0.));
#254=DIRECTION('',(0.,0.,1.));
#255=DIRECTION('',(0.,1.,0.));
#256=DIRECTION('center_axis',(0.,1.,0.));
#257=DIRECTION('ref_axis',(-1.,0.,0.));
#258=DIRECTION('',(1.,0.,0.));
#259=DIRECTION('',(-1.,0.,0.));
#260=DIRECTION('',(0.,0.,1.));
#261=DIRECTION('center_axis',(1.,0.,0.));
#262=DIRECTION('ref_axis',(0.,1.,0.));
#263=DIRECTION('',(0.,-1.,0.));
#264=DIRECTION('',(0.,1.,0.));
#265=DIRECTION('',(0.,0.,1.));
#266=DIRECTION('',(0.,-1.,0.));
#267=DIRECTION('center_axis',(3.64838545220342E-17,-1.,0.));
#268=DIRECTION('ref_axis',(1.,3.64838545220342E-17,0.));
#269=DIRECTION('',(-1.,-3.64838545220342E-17,0.));
#270=DIRECTION('',(1.,3.64838545220342E-17,0.));
#271=DIRECTION('center_axis',(0.,0.,1.));
#272=DIRECTION('ref_axis',(1.,0.,0.));
#273=DIRECTION('center_axis',(0.,0.,1.));
#274=DIRECTION('ref_axis',(1.,0.,0.));
#275=DIRECTION('',(1.,0.,0.));
#276=DIRECTION('center_axis',(0.,-1.,0.));
#277=DIRECTION('ref_axis',(-1.,0.,0.));
#278=DIRECTION('',(1.,0.,0.));
#279=DIRECTION('',(0.,0.,-1.));
#280=DIRECTION('',(-1.,0.,0.));
#281=DIRECTION('',(0.,0.,-1.));
#282=DIRECTION('',(1.,0.,0.));
#283=DIRECTION('center_axis',(1.,0.,0.));
#284=DIRECTION('ref_axis',(0.,-1.,0.));
#285=DIRECTION('',(0.,1.,0.));
#286=DIRECTION('',(0.,-1.,0.));
#287=DIRECTION('',(0.,0.,-1.));
#288=DIRECTION('center_axis',(0.,1.,0.));
#289=DIRECTION('ref_axis',(1.,0.,0.));
#290=DIRECTION('',(-1.,0.,0.));
#291=DIRECTION('',(1.,0.,0.));
#292=DIRECTION('',(0.,0.,-1.));
#293=DIRECTION('center_axis',(-1.,0.,0.));
#294=DIRECTION('ref_axis',(0.,1.,0.));
#295=DIRECTION('',(0.,-1.,0.));
#296=DIRECTION('',(0.,1.,0.));
#297=DIRECTION('center_axis',(0.,0.,1.));
#298=DIRECTION('ref_axis',(1.,0.,0.));
#299=DIRECTION('center_axis',(0.,0.,-1.));
#300=DIRECTION('ref_axis',(-1.,0.,0.));
#301=CARTESIAN_POINT('',(0.,0.,0.));
#302=CARTESIAN_POINT('Origin',(1.33033229276587,10.8891924366603,0.));
#303=CARTESIAN_POINT('',(1.33033229276587,-3.56052457473472,0.));
#304=CARTESIAN_POINT('',(1.33033229276587,0.,0.));
#305=CARTESIAN_POINT('',(1.33033229276587,-3.56052457473472,0.));
#306=CARTESIAN_POINT('',(1.33033229276587,-3.56052457473472,1.6));
#307=CARTESIAN_POINT('',(1.33033229276587,-3.56052457473472,0.));
#308=CARTESIAN_POINT('',(1.33033229276587,10.8891924366603,1.6));
#309=CARTESIAN_POINT('',(1.33033229276587,-3.56052457473472,1.6));
#310=CARTESIAN_POINT('',(1.33033229276587,10.8891924366603,0.));
#311=CARTESIAN_POINT('',(1.33033229276587,10.8891924366603,0.));
#312=CARTESIAN_POINT('',(1.33033229276587,10.0695962183301,0.));
#313=CARTESIAN_POINT('Origin',(16.5455972252944,10.8891924366603,0.));
#314=CARTESIAN_POINT('',(16.5455972252944,10.8891924366603,0.));
#315=CARTESIAN_POINT('',(12.6477986126472,10.8891924366603,0.));
#316=CARTESIAN_POINT('',(16.5455972252944,10.8891924366603,1.6));
#317=CARTESIAN_POINT('',(1.33033229276587,10.8891924366603,1.6));
#318=CARTESIAN_POINT('',(16.5455972252944,10.8891924366603,0.));
#319=CARTESIAN_POINT('Origin',(16.5455972252944,-3.56052457473472,0.));
#320=CARTESIAN_POINT('',(16.5455972252944,0.,0.));
#321=CARTESIAN_POINT('',(16.5455972252944,2.84473771263264,0.));
#322=CARTESIAN_POINT('',(16.5455972252944,-3.56052457473472,1.6));
#323=CARTESIAN_POINT('',(16.5455972252944,10.8891924366603,1.6));
#324=CARTESIAN_POINT('',(16.5455972252944,-3.56052457473472,0.));
#325=CARTESIAN_POINT('',(16.5455972252944,-3.56052457473472,0.));
#326=CARTESIAN_POINT('',(16.5455972252944,10.8891924366603,0.));
#327=CARTESIAN_POINT('Origin',(1.33033229276587,-3.56052457473472,0.));
#328=CARTESIAN_POINT('',(16.5455972252944,-3.56052457473472,0.));
#329=CARTESIAN_POINT('',(16.5455972252944,-3.56052457473472,1.6));
#330=CARTESIAN_POINT('Origin',(8.93796475903012,3.66433393096278,1.6));
#331=CARTESIAN_POINT('Origin',(8.93796475903012,3.66433393096278,0.));
#332=CARTESIAN_POINT('',(0.,0.,0.));
#333=CARTESIAN_POINT('Origin',(17.5,0.,0.));
#334=CARTESIAN_POINT('',(0.,0.,0.));
#335=CARTESIAN_POINT('',(0.,0.,0.));
#336=CARTESIAN_POINT('',(0.,0.,-1.61));
#337=CARTESIAN_POINT('',(0.,0.,0.));
#338=CARTESIAN_POINT('',(17.5,0.,-1.61));
#339=CARTESIAN_POINT('',(0.,0.,-1.61));
#340=CARTESIAN_POINT('',(17.5,0.,0.));
#341=CARTESIAN_POINT('',(17.5,0.,0.));
#342=CARTESIAN_POINT('',(0.,0.,0.));
#343=CARTESIAN_POINT('Origin',(17.5,18.5,0.));
#344=CARTESIAN_POINT('',(17.5,18.5,0.));
#345=CARTESIAN_POINT('',(17.5,0.,0.));
#346=CARTESIAN_POINT('',(17.5,18.5,-1.61));
#347=CARTESIAN_POINT('',(17.5,0.,-1.61));
#348=CARTESIAN_POINT('',(17.5,18.5,0.));
#349=CARTESIAN_POINT('Origin',(0.,18.5,0.));
#350=CARTESIAN_POINT('',(0.,18.5,0.));
#351=CARTESIAN_POINT('',(17.5,18.5,0.));
#352=CARTESIAN_POINT('',(0.,18.5,-1.61));
#353=CARTESIAN_POINT('',(17.5,18.5,-1.61));
#354=CARTESIAN_POINT('',(0.,18.5,0.));
#355=CARTESIAN_POINT('Origin',(0.,0.,0.));
#356=CARTESIAN_POINT('',(0.,18.5,0.));
#357=CARTESIAN_POINT('',(0.,18.5,-1.61));
#358=CARTESIAN_POINT('Origin',(8.75,9.25,0.));
#359=CARTESIAN_POINT('Origin',(8.75,9.25,-1.61));
#360=UNCERTAINTY_MEASURE_WITH_UNIT(LENGTH_MEASURE(0.01),#364,
'DISTANCE_ACCURACY_VALUE',
'Maximum model space distance between geometric entities at asserted c
onnectivities');
#361=UNCERTAINTY_MEASURE_WITH_UNIT(LENGTH_MEASURE(0.01),#364,
'DISTANCE_ACCURACY_VALUE',
'Maximum model space distance between geometric entities at asserted c
onnectivities');
#362=(
GEOMETRIC_REPRESENTATION_CONTEXT(3)
GLOBAL_UNCERTAINTY_ASSIGNED_CONTEXT((#360))
GLOBAL_UNIT_ASSIGNED_CONTEXT((#364,#366,#367))
REPRESENTATION_CONTEXT('','3D')
);
#363=(
GEOMETRIC_REPRESENTATION_CONTEXT(3)
GLOBAL_UNCERTAINTY_ASSIGNED_CONTEXT((#361))
GLOBAL_UNIT_ASSIGNED_CONTEXT((#364,#366,#367))
REPRESENTATION_CONTEXT('','3D')
);
#364=(
LENGTH_UNIT()
NAMED_UNIT(*)
SI_UNIT(.MILLI.,.METRE.)
);
#365=(
LENGTH_UNIT()
NAMED_UNIT(*)
SI_UNIT($,.METRE.)
);
#366=(
NAMED_UNIT(*)
PLANE_ANGLE_UNIT()
SI_UNIT($,.RADIAN.)
);
#367=(
NAMED_UNIT(*)
SI_UNIT($,.STERADIAN.)
SOLID_ANGLE_UNIT()
);
#368=SHAPE_DEFINITION_REPRESENTATION(#369,#370);
#369=PRODUCT_DEFINITION_SHAPE('',$,#372);
#370=SHAPE_REPRESENTATION('',(#234),#362);
#371=PRODUCT_DEFINITION_CONTEXT('part definition',#376,'design');
#372=PRODUCT_DEFINITION('SD_CARD_MODULE','SD_CARD_MODULE v1',#373,#371);
#373=PRODUCT_DEFINITION_FORMATION('',$,#378);
#374=PRODUCT_RELATED_PRODUCT_CATEGORY('SD_CARD_MODULE v1',
'SD_CARD_MODULE v1',(#378));
#375=APPLICATION_PROTOCOL_DEFINITION('international standard',
'automotive_design',2009,#376);
#376=APPLICATION_CONTEXT(
'Core Data for Automotive Mechanical Design Process');
#377=PRODUCT_CONTEXT('part definition',#376,'mechanical');
#378=PRODUCT('SD_CARD_MODULE','SD_CARD_MODULE v1',$,(#377));
#379=PRESENTATION_STYLE_ASSIGNMENT((#380));
#380=SURFACE_STYLE_USAGE(.BOTH.,#381);
#381=SURFACE_SIDE_STYLE('',(#382));
#382=SURFACE_STYLE_FILL_AREA(#383);
#383=FILL_AREA_STYLE('Steel - Satin',(#384));
#384=FILL_AREA_STYLE_COLOUR('Steel - Satin',#385);
#385=COLOUR_RGB('Steel - Satin',0.627450980392157,0.627450980392157,0.627450980392157);
ENDSEC;
END-ISO-10303-21;
